generated_vhdl_test4/wave.vcd
$date
  Tue Feb  3 23:42:10 2026
$end
$version
  GHDL v0
$end
$timescale
  1 fs
$end
$scope module standard $end
$upscope $end
$scope module textio $end
$upscope $end
$scope module std_logic_1164 $end
$upscope $end
$scope module numeric_std $end
$upscope $end
$scope module testbench $end
$var reg 1 ! clk $end
$var reg 1 " rst $end
$var reg 5 # state_out[4:0] $end
$var reg 1 $ done $end
$scope module design_inst $end
$var reg 1 % clk $end
$var reg 1 & rst $end
$var reg 5 ' state_out[4:0] $end
$var reg 1 ( done $end
$comment state is not handled $end
$var reg 1 ) r0_en $end
$var reg 32 * r0_out[31:0] $end
$var reg 1 + r1_en $end
$var reg 32 , r1_out[31:0] $end
$var reg 1 - r2_en $end
$var reg 32 . r2_out[31:0] $end
$var reg 1 / r3_en $end
$var reg 32 0 r3_out[31:0] $end
$var reg 1 1 r4_en $end
$var reg 32 2 r4_out[31:0] $end
$var reg 1 3 r5_en $end
$var reg 32 4 r5_out[31:0] $end
$var reg 1 5 r6_en $end
$var reg 32 6 r6_out[31:0] $end
$var reg 1 7 r7_en $end
$var reg 32 8 r7_out[31:0] $end
$var reg 1 9 r8_en $end
$var reg 32 : r8_out[31:0] $end
$var reg 1 ; r9_en $end
$var reg 32 < r9_out[31:0] $end
$var reg 1 = r10_en $end
$var reg 32 > r10_out[31:0] $end
$var reg 1 ? r11_en $end
$var reg 32 @ r11_out[31:0] $end
$var reg 1 A r12_en $end
$var reg 32 B r12_out[31:0] $end
$var reg 1 C r13_en $end
$var reg 32 D r13_out[31:0] $end
$var reg 1 E r14_en $end
$var reg 32 F r14_out[31:0] $end
$var reg 1 G r15_en $end
$var reg 32 H r15_out[31:0] $end
$var reg 1 I r16_en $end
$var reg 32 J r16_out[31:0] $end
$var reg 1 K r17_en $end
$var reg 32 L r17_out[31:0] $end
$var reg 1 M r18_en $end
$var reg 32 N r18_out[31:0] $end
$var reg 1 O r19_en $end
$var reg 32 P r19_out[31:0] $end
$var reg 1 Q r20_en $end
$var reg 32 R r20_out[31:0] $end
$var reg 1 S r21_en $end
$var reg 32 T r21_out[31:0] $end
$var reg 1 U r22_en $end
$var reg 32 V r22_out[31:0] $end
$var reg 1 W r23_en $end
$var reg 32 X r23_out[31:0] $end
$var reg 1 Y r24_en $end
$var reg 32 Z r24_out[31:0] $end
$var reg 1 [ r25_en $end
$var reg 32 \ r25_out[31:0] $end
$var reg 1 ] r26_en $end
$var reg 32 ^ r26_out[31:0] $end
$var reg 1 _ r27_en $end
$var reg 32 ` r27_out[31:0] $end
$var reg 1 a r28_en $end
$var reg 32 b r28_out[31:0] $end
$var reg 1 c r29_en $end
$var reg 32 d r29_out[31:0] $end
$var reg 1 e r30_en $end
$var reg 32 f r30_out[31:0] $end
$var reg 1 g r31_en $end
$var reg 32 h r31_out[31:0] $end
$var reg 1 i r32_en $end
$var reg 32 j r32_out[31:0] $end
$var reg 1 k r33_en $end
$var reg 32 l r33_out[31:0] $end
$var reg 1 m r34_en $end
$var reg 32 n r34_out[31:0] $end
$var reg 1 o r35_en $end
$var reg 32 p r35_out[31:0] $end
$var reg 1 q r36_en $end
$var reg 32 r r36_out[31:0] $end
$var reg 1 s r37_en $end
$var reg 32 t r37_out[31:0] $end
$var reg 1 u r38_en $end
$var reg 32 v r38_out[31:0] $end
$var reg 1 w r39_en $end
$var reg 32 x r39_out[31:0] $end
$var reg 1 y r40_en $end
$var reg 32 z r40_out[31:0] $end
$var reg 1 { r41_en $end
$var reg 32 | r41_out[31:0] $end
$var reg 1 } r42_en $end
$var reg 32 !" r42_out[31:0] $end
$var reg 1 "" r43_en $end
$var reg 32 #" r43_out[31:0] $end
$var reg 1 $" r44_en $end
$var reg 32 %" r44_out[31:0] $end
$var reg 1 &" r45_en $end
$var reg 32 '" r45_out[31:0] $end
$var reg 1 (" r46_en $end
$var reg 32 )" r46_out[31:0] $end
$var reg 1 *" r47_en $end
$var reg 32 +" r47_out[31:0] $end
$var reg 1 ," r48_en $end
$var reg 32 -" r48_out[31:0] $end
$var reg 1 ." r49_en $end
$var reg 32 /" r49_out[31:0] $end
$var reg 1 0" r50_en $end
$var reg 32 1" r50_out[31:0] $end
$var reg 1 2" r51_en $end
$var reg 32 3" r51_out[31:0] $end
$var reg 1 4" r52_en $end
$var reg 32 5" r52_out[31:0] $end
$var reg 1 6" r53_en $end
$var reg 32 7" r53_out[31:0] $end
$var reg 1 8" r54_en $end
$var reg 32 9" r54_out[31:0] $end
$var reg 1 :" r55_en $end
$var reg 32 ;" r55_out[31:0] $end
$var reg 1 <" r56_en $end
$var reg 32 =" r56_out[31:0] $end
$var reg 1 >" r57_en $end
$var reg 32 ?" r57_out[31:0] $end
$var reg 1 @" r58_en $end
$var reg 32 A" r58_out[31:0] $end
$var reg 1 B" r59_en $end
$var reg 32 C" r59_out[31:0] $end
$var reg 1 D" r60_en $end
$var reg 32 E" r60_out[31:0] $end
$var reg 1 F" r61_en $end
$var reg 32 G" r61_out[31:0] $end
$var reg 1 H" r62_en $end
$var reg 32 I" r62_out[31:0] $end
$var reg 1 J" r63_en $end
$var reg 32 K" r63_out[31:0] $end
$var reg 1 L" r64_en $end
$var reg 32 M" r64_out[31:0] $end
$var reg 1 N" r65_en $end
$var reg 32 O" r65_out[31:0] $end
$var reg 1 P" r66_en $end
$var reg 32 Q" r66_out[31:0] $end
$var reg 1 R" r67_en $end
$var reg 32 S" r67_out[31:0] $end
$var reg 1 T" r68_en $end
$var reg 32 U" r68_out[31:0] $end
$var reg 1 V" r69_en $end
$var reg 32 W" r69_out[31:0] $end
$var reg 1 X" r70_en $end
$var reg 32 Y" r70_out[31:0] $end
$var reg 1 Z" r71_en $end
$var reg 32 [" r71_out[31:0] $end
$var reg 1 \" a_we $end
$var reg 3 ]" a_addr_wr[2:0] $end
$var reg 3 ^" a_addr_rd[2:0] $end
$var reg 32 _" a_din[31:0] $end
$var reg 32 `" a_dout[31:0] $end
$var reg 1 a" c_we $end
$var reg 2 b" c_addr_wr[1:0] $end
$var reg 2 c" c_addr_rd[1:0] $end
$var reg 32 d" c_din[31:0] $end
$var reg 32 e" c_dout[31:0] $end
$var reg 1 f" w_we $end
$var reg 2 g" w_addr_wr[1:0] $end
$var reg 2 h" w_addr_rd[1:0] $end
$var reg 32 i" w_din[31:0] $end
$var reg 32 j" w_dout[31:0] $end
$var reg 4 k" mux_a_addr_sel[3:0] $end
$var reg 32 l" mux_a_addr_out[31:0] $end
$var reg 4 m" mux_w_addr_sel[3:0] $end
$var reg 32 n" mux_w_addr_out[31:0] $end
$var reg 4 o" mux_mul_0_left_sel[3:0] $end
$var reg 32 p" mux_mul_0_left_out[31:0] $end
$var reg 4 q" mux_mul_0_right_sel[3:0] $end
$var reg 32 r" mux_mul_0_right_out[31:0] $end
$var reg 4 s" mux_add_0_left_sel[3:0] $end
$var reg 32 t" mux_add_0_left_out[31:0] $end
$var reg 4 u" mux_add_0_right_sel[3:0] $end
$var reg 32 v" mux_add_0_right_out[31:0] $end
$var reg 4 w" mux_c_addr_sel[3:0] $end
$var reg 32 x" mux_c_addr_out[31:0] $end
$var reg 4 y" mux_c_data_sel[3:0] $end
$var reg 32 z" mux_c_data_out[31:0] $end
$var reg 32 {" add_0_a[31:0] $end
$var reg 32 |" add_0_b[31:0] $end
$var reg 32 }" add_0_out[31:0] $end
$var reg 32 !# mul_0_a[31:0] $end
$var reg 32 "# mul_0_b[31:0] $end
$var reg 32 ## mul_0_out[31:0] $end
$scope module a_ram $end
$var reg 1 $# clk $end
$var reg 1 %# we $end
$var reg 3 &# addr_wr[2:0] $end
$var reg 3 '# addr_rd[2:0] $end
$var reg 32 (# din[31:0] $end
$var reg 32 )# dout[31:0] $end
$comment ram_dual_port is not handled $end
$upscope $end
$scope module c_ram $end
$var reg 1 *# clk $end
$var reg 1 +# we $end
$var reg 2 ,# addr_wr[1:0] $end
$var reg 2 -# addr_rd[1:0] $end
$var reg 32 .# din[31:0] $end
$var reg 32 /# dout[31:0] $end
$comment ram_dual_port is not handled $end
$upscope $end
$scope module w_ram $end
$var reg 1 0# clk $end
$var reg 1 1# we $end
$var reg 2 2# addr_wr[1:0] $end
$var reg 2 3# addr_rd[1:0] $end
$var reg 32 4# din[31:0] $end
$var reg 32 5# dout[31:0] $end
$comment ram_dual_port is not handled $end
$upscope $end
$scope module add_0_adder $end
$var reg 32 6# a[31:0] $end
$var reg 32 7# b[31:0] $end
$var reg 32 8# y[31:0] $end
$upscope $end
$scope module mul_0_mul $end
$var reg 32 9# a[31:0] $end
$var reg 32 :# b[31:0] $end
$var reg 32 ;# y[31:0] $end
$var reg 64 <# product[63:0] $end
$upscope $end
$upscope $end
$upscope $end
$enddefinitions $end
#0
0!
1"
b00000 #
0$
0%
1&
b00000 '
0(
1)
b00000000000000000000000000000000 *
1+
b00000000000000000000000000000000 ,
0-
b00000000000000000000000000000000 .
0/
b00000000000000000000000000000000 0
11
b00000000000000000000000000000000 2
13
b00000000000000000000000000000000 4
05
b00000000000000000000000000000000 6
07
b00000000000000000000000000000000 8
09
b00000000000000000000000000000000 :
0;
b00000000000000000000000000000000 <
1=
b00000000000000000000000000000000 >
1?
b00000000000000000000000000000000 @
0A
b00000000000000000000000000000000 B
0C
b00000000000000000000000000000000 D
0E
b00000000000000000000000000000000 F
0G
b00000000000000000000000000000000 H
1I
b00000000000000000000000000000000 J
0K
b00000000000000000000000000000000 L
1M
b00000000000000000000000000000000 N
1O
b00000000000000000000000000000000 P
0Q
b00000000000000000000000000000000 R
0S
b00000000000000000000000000000000 T
1U
b00000000000000000000000000000000 V
1W
b00000000000000000000000000000000 X
0Y
b00000000000000000000000000000000 Z
0[
b00000000000000000000000000000000 \
0]
b00000000000000000000000000000000 ^
0_
b00000000000000000000000000000000 `
1a
b00000000000000000000000000000000 b
1c
b00000000000000000000000000000000 d
0e
b00000000000000000000000000000000 f
0g
b00000000000000000000000000000000 h
0i
b00000000000000000000000000000000 j
0k
b00000000000000000000000000000000 l
1m
b00000000000000000000000000000000 n
0o
b00000000000000000000000000000000 p
1q
b00000000000000000000000000000000 r
1s
b00000000000000000000000000000000 t
0u
b00000000000000000000000000000000 v
0w
b00000000000000000000000000000000 x
1y
b00000000000000000000000000000000 z
1{
b00000000000000000000000000000000 |
0}
b00000000000000000000000000000000 !"
0""
b00000000000000000000000000000000 #"
0$"
b00000000000000000000000000000000 %"
0&"
b00000000000000000000000000000000 '"
1("
b00000000000000000000000000000000 )"
1*"
b00000000000000000000000000000000 +"
0,"
b00000000000000000000000000000000 -"
0."
b00000000000000000000000000000000 /"
00"
b00000000000000000000000000000000 1"
02"
b00000000000000000000000000000000 3"
14"
b00000000000000000000000000000000 5"
06"
b00000000000000000000000000000000 7"
18"
b00000000000000000000000000000000 9"
1:"
b00000000000000000000000000000000 ;"
0<"
b00000000000000000000000000000000 ="
0>"
b00000000000000000000000000000000 ?"
1@"
b00000000000000000000000000000000 A"
1B"
b00000000000000000000000000000000 C"
0D"
b00000000000000000000000000000000 E"
0F"
b00000000000000000000000000000000 G"
0H"
b00000000000000000000000000000000 I"
0J"
b00000000000000000000000000000000 K"
1L"
b00000000000000000000000000000000 M"
1N"
b00000000000000000000000000000000 O"
0P"
b00000000000000000000000000000000 Q"
0R"
b00000000000000000000000000000000 S"
0T"
b00000000000000000000000000000000 U"
0V"
b00000000000000000000000000000000 W"
1X"
b00000000000000000000000000000000 Y"
0Z"
b00000000000000000000000000000000 ["
0\"
b000 ]"
b000 ^"
bUUUUUUUUUUUUUUUUUUUUUUUUUUUUUUUU _"
b00000000000000000000000000000001 `"
0a"
b00 b"
b00 c"
b00000000000000000000000000000000 d"
b00000000000000000000000000000000 e"
0f"
b00 g"
b00 h"
bUUUUUUUUUUUUUUUUUUUUUUUUUUUUUUUU i"
b00000000000000000000000000000001 j"
b0000 k"
b00000000000000000000000000000000 l"
b0000 m"
b00000000000000000000000000000000 n"
b0000 o"
b00000000000000000000000000000000 p"
b0000 q"
b00000000000000000000000000000000 r"
b0000 s"
b00000000000000000000000000000000 t"
b0000 u"
b00000000000000000000000000000000 v"
b0000 w"
b00000000000000000000000000000000 x"
b0000 y"
b00000000000000000000000000000000 z"
b00000000000000000000000000000000 {"
b00000000000000000000000000000000 |"
b00000000000000000000000000000000 }"
b00000000000000000000000000000000 !#
b00000000000000000000000000000000 "#
b00000000000000000000000000000000 ##
0$#
0%#
b000 &#
b000 '#
bUUUUUUUUUUUUUUUUUUUUUUUUUUUUUUUU (#
b00000000000000000000000000000001 )#
0*#
0+#
b00 ,#
b00 -#
b00000000000000000000000000000000 .#
b00000000000000000000000000000000 /#
00#
01#
b00 2#
b00 3#
bUUUUUUUUUUUUUUUUUUUUUUUUUUUUUUUU 4#
b00000000000000000000000000000001 5#
b00000000000000000000000000000000 6#
b00000000000000000000000000000000 7#
b00000000000000000000000000000000 8#
b00000000000000000000000000000000 9#
b00000000000000000000000000000000 :#
b00000000000000000000000000000000 ;#
b0000000000000000000000000000000000000000000000000000000000000000 <#
#5000000
1!
1%
b00000000000000000000000000000001 2
b00000000000000000000000000000001 4
b00000000000000000000000000000010 >
b00000000000000000000000000000010 @
b00000000000000000000000000000001 N
b00000000000000000000000000000010 V
b00000000000000000000000000000001 X
b00000000000000000000000000000011 b
b00000000000000000000000000000010 d
b00000000000000000000000000000001 n
b00000000000000000000000000000010 r
b00000000000000000000000000000011 z
b00000000000000000000000000000001 |
b00000000000000000000000000000100 )"
b00000000000000000000000000000010 +"
b00000000000000000000000000000010 5"
b00000000000000000000000000000011 9"
b00000000000000000000000000000100 A"
b00000000000000000000000000000001 C"
b00000000000000000000000000000101 M"
b00000000000000000000000000000010 O"
b00000000000000000000000000000011 Y"
1$#
1*#
10#
#10000000
0!
0%
0$#
0*#
00#
#15000000
1!
1%
1$#
1*#
10#
#20000000
0!
0"
0%
0&
0$#
0*#
00#
#25000000
1!
b00001 #
1%
b00001 '
0)
0+
1-
1/
01
03
0=
0?
0I
0M
0O
0U
0W
0a
0c
0m
0q
0s
0y
0{
0("
0*"
04"
08"
0:"
0@"
0B"
0L"
0N"
0X"
1$#
1*#
10#
#30000000
0!
0%
0$#
0*#
00#
#35000000
1!
b00010 #
1%
b00010 '
0-
b00000000000000000000000000000001 .
0/
b00000000000000000000000000000001 0
15
17
19
b001 ]"
b001 ^"
b00000000000000000000000000000010 `"
b01 g"
b01 h"
b0001 k"
b00000000000000000000000000000001 l"
b0001 m"
b00000000000000000000000000000001 n"
b00000000000000000000000000000001 p"
b00000000000000000000000000000001 r"
b00000000000000000000000000000001 !#
b00000000000000000000000000000001 "#
b00000000000000000000000000000001 ##
1$#
b001 &#
b001 '#
b00000000000000000000000000000010 )#
1*#
10#
b01 2#
b01 3#
b00000000000000000000000000000001 9#
b00000000000000000000000000000001 :#
b00000000000000000000000000000001 ;#
b0000000000000000000000000000000000000000000000000000000000000001 <#
#40000000
0!
0%
0$#
0*#
00#
#45000000
1!
b00011 #
1%
b00011 '
05
b00000000000000000000000000000010 6
07
b00000000000000000000000000000001 8
09
b00000000000000000000000000000001 :
1;
1A
1C
b010 ]"
b010 ^"
b00000000000000000000000000000011 `"
b10 g"
b10 h"
b0010 k"
b00000000000000000000000000000010 l"
b0010 m"
b00000000000000000000000000000010 n"
b0001 o"
b00000000000000000000000000000010 p"
b0001 q"
b00000000000000000000000000000001 t"
b00000000000000000000000000000001 {"
b00000000000000000000000000000001 }"
b00000000000000000000000000000010 !#
b00000000000000000000000000000010 ##
1$#
b010 &#
b010 '#
b00000000000000000000000000000011 )#
1*#
10#
b10 2#
b10 3#
b00000000000000000000000000000001 6#
b00000000000000000000000000000001 8#
b00000000000000000000000000000010 9#
b00000000000000000000000000000010 ;#
b0000000000000000000000000000000000000000000000000000000000000010 <#
#50000000
0!
0%
0$#
0*#
00#
#55000000
1!
b00100 #
1%
b00100 '
0;
b00000000000000000000000000000010 <
0A
b00000000000000000000000000000011 B
0C
b00000000000000000000000000000001 D
1E
1G
1Q
1S
b001 ]"
b001 ^"
b00000000000000000000000000000010 `"
b00 g"
b00 h"
b0011 k"
b00000000000000000000000000000001 l"
b0011 m"
b00000000000000000000000000000000 n"
b0010 o"
b00000000000000000000000000000011 p"
b0010 q"
b00000000000000000000000000000010 v"
b00000000000000000000000000000010 |"
b00000000000000000000000000000011 }"
b00000000000000000000000000000011 !#
b00000000000000000000000000000011 ##
1$#
b001 &#
b001 '#
b00000000000000000000000000000010 )#
1*#
10#
b00 2#
b00 3#
b00000000000000000000000000000010 7#
b00000000000000000000000000000011 8#
b00000000000000000000000000000011 9#
b00000000000000000000000000000011 ;#
b0000000000000000000000000000000000000000000000000000000000000011 <#
#60000000
0!
0%
0$#
0*#
00#
#65000000
1!
b00101 #
1%
b00101 '
0E
b00000000000000000000000000000011 F
0G
b00000000000000000000000000000011 H
1K
0Q
b00000000000000000000000000000010 R
0S
b00000000000000000000000000000001 T
1Y
1[
1]
b010 ]"
b010 ^"
b00000000000000000000000000000011 `"
b01 g"
b01 h"
b0100 k"
b00000000000000000000000000000010 l"
b0100 m"
b00000000000000000000000000000001 n"
b0011 o"
b00000000000000000000000000000010 p"
b0011 q"
b0001 s"
b00000000000000000000000000000011 t"
b0001 u"
b00000000000000000000000000000011 v"
b00000000000000000000000000000011 {"
b00000000000000000000000000000011 |"
b00000000000000000000000000000110 }"
b00000000000000000000000000000010 !#
b00000000000000000000000000000010 ##
1$#
b010 &#
b010 '#
b00000000000000000000000000000011 )#
1*#
10#
b01 2#
b01 3#
b00000000000000000000000000000011 6#
b00000000000000000000000000000011 7#
b00000000000000000000000000000110 8#
b00000000000000000000000000000010 9#
b00000000000000000000000000000010 ;#
b0000000000000000000000000000000000000000000000000000000000000010 <#
#70000000
0!
0%
0$#
0*#
00#
#75000000
1!
b00110 #
1%
b00110 '
0K
b00000000000000000000000000000110 L
0Y
b00000000000000000000000000000011 Z
0[
b00000000000000000000000000000001 \
0]
b00000000000000000000000000000010 ^
1_
1e
1g
b011 ]"
b011 ^"
b00000000000000000000000000000100 `"
1a"
b00000000000000000000000000000110 d"
b10 g"
b10 h"
b0101 k"
b00000000000000000000000000000011 l"
b0101 m"
b00000000000000000000000000000010 n"
b0100 o"
b00000000000000000000000000000011 p"
b0100 q"
b0000 s"
b00000000000000000000000000000001 t"
b0000 u"
b00000000000000000000000000000010 v"
b00000000000000000000000000000110 z"
b00000000000000000000000000000001 {"
b00000000000000000000000000000010 |"
b00000000000000000000000000000011 }"
b00000000000000000000000000000011 !#
b00000000000000000000000000000011 ##
1$#
b011 &#
b011 '#
b00000000000000000000000000000100 )#
1*#
1+#
b00000000000000000000000000000110 .#
10#
b10 2#
b10 3#
b00000000000000000000000000000001 6#
b00000000000000000000000000000010 7#
b00000000000000000000000000000011 8#
b00000000000000000000000000000011 9#
b00000000000000000000000000000011 ;#
b0000000000000000000000000000000000000000000000000000000000000011 <#
#80000000
0!
0%
0$#
0*#
00#
#85000000
1!
b00111 #
1%
b00111 '
0_
b00000000000000000000000000000011 `
0e
b00000000000000000000000000000100 f
0g
b00000000000000000000000000000001 h
1i
1k
1u
1w
b010 ]"
b010 ^"
b00000000000000000000000000000011 `"
0a"
b00000000000000000000000000000110 e"
b00 g"
b00 h"
b0110 k"
b00000000000000000000000000000010 l"
b0110 m"
b00000000000000000000000000000000 n"
b0101 o"
b00000000000000000000000000000100 p"
b0101 q"
b0010 s"
b00000000000000000000000000000010 t"
b0010 u"
b00000000000000000000000000000011 v"
b00000000000000000000000000000010 {"
b00000000000000000000000000000011 |"
b00000000000000000000000000000101 }"
b00000000000000000000000000000100 !#
b00000000000000000000000000000100 ##
1$#
b010 &#
b010 '#
b00000000000000000000000000000011 )#
1*#
0+#
b00000000000000000000000000000110 /#
10#
b00 2#
b00 3#
b00000000000000000000000000000010 6#
b00000000000000000000000000000011 7#
b00000000000000000000000000000101 8#
b00000000000000000000000000000100 9#
b00000000000000000000000000000100 ;#
b0000000000000000000000000000000000000000000000000000000000000100 <#
#90000000
0!
0%
0$#
0*#
00#
#95000000
1!
b01000 #
1%
b01000 '
0i
b00000000000000000000000000000101 j
0k
b00000000000000000000000000000100 l
1o
0u
b00000000000000000000000000000011 v
0w
b00000000000000000000000000000001 x
1}
1""
1$"
b011 ]"
b011 ^"
b00000000000000000000000000000100 `"
b01 g"
b01 h"
b0111 k"
b00000000000000000000000000000011 l"
b0111 m"
b00000000000000000000000000000001 n"
b0110 o"
b00000000000000000000000000000011 p"
b0110 q"
b0011 s"
b00000000000000000000000000000101 t"
b0011 u"
b00000000000000000000000000000100 v"
b00000000000000000000000000000101 {"
b00000000000000000000000000000100 |"
b00000000000000000000000000001001 }"
b00000000000000000000000000000011 !#
b00000000000000000000000000000011 ##
1$#
b011 &#
b011 '#
b00000000000000000000000000000100 )#
1*#
10#
b01 2#
b01 3#
b00000000000000000000000000000101 6#
b00000000000000000000000000000100 7#
b00000000000000000000000000001001 8#
b00000000000000000000000000000011 9#
b00000000000000000000000000000011 ;#
b0000000000000000000000000000000000000000000000000000000000000011 <#
#100000000
0!
0%
0$#
0*#
00#
#105000000
1!
b01001 #
1%
b01001 '
0o
b00000000000000000000000000001001 p
0}
b00000000000000000000000000000100 !"
0""
b00000000000000000000000000000001 #"
0$"
b00000000000000000000000000000011 %"
1&"
1,"
1."
b100 ]"
b100 ^"
b00000000000000000000000000000101 `"
1a"
b01 b"
b01 c"
b00000000000000000000000000001001 d"
b00000000000000000000000000000000 e"
b10 g"
b10 h"
b1000 k"
b00000000000000000000000000000100 l"
b1000 m"
b00000000000000000000000000000010 n"
b0111 o"
b00000000000000000000000000000100 p"
b0111 q"
b0000 s"
b00000000000000000000000000000001 t"
b0000 u"
b00000000000000000000000000000010 v"
b0001 w"
b00000000000000000000000000000001 x"
b0001 y"
b00000000000000000000000000001001 z"
b00000000000000000000000000000001 {"
b00000000000000000000000000000010 |"
b00000000000000000000000000000011 }"
b00000000000000000000000000000100 !#
b00000000000000000000000000000100 ##
1$#
b100 &#
b100 '#
b00000000000000000000000000000101 )#
1*#
1+#
b01 ,#
b01 -#
b00000000000000000000000000001001 .#
b00000000000000000000000000000000 /#
10#
b10 2#
b10 3#
b00000000000000000000000000000001 6#
b00000000000000000000000000000010 7#
b00000000000000000000000000000011 8#
b00000000000000000000000000000100 9#
b00000000000000000000000000000100 ;#
b0000000000000000000000000000000000000000000000000000000000000100 <#
#110000000
0!
0%
0$#
0*#
00#
#115000000
1!
b01010 #
1%
b01010 '
0&"
b00000000000000000000000000000100 '"
0,"
b00000000000000000000000000000101 -"
0."
b00000000000000000000000000000001 /"
10"
12"
1<"
1>"
b011 ]"
b011 ^"
b00000000000000000000000000000100 `"
0a"
b00 b"
b00 c"
b00000000000000000000000000000110 d"
b00000000000000000000000000000110 e"
b00 g"
b00 h"
b1001 k"
b00000000000000000000000000000011 l"
b1001 m"
b00000000000000000000000000000000 n"
b1000 o"
b00000000000000000000000000000101 p"
b1000 q"
b0100 s"
b00000000000000000000000000000011 t"
b0100 u"
b00000000000000000000000000000100 v"
b0000 w"
b00000000000000000000000000000000 x"
b0000 y"
b00000000000000000000000000000110 z"
b00000000000000000000000000000011 {"
b00000000000000000000000000000100 |"
b00000000000000000000000000000111 }"
b00000000000000000000000000000101 !#
b00000000000000000000000000000101 ##
1$#
b011 &#
b011 '#
b00000000000000000000000000000100 )#
1*#
0+#
b00 ,#
b00 -#
b00000000000000000000000000000110 .#
b00000000000000000000000000000110 /#
10#
b00 2#
b00 3#
b00000000000000000000000000000011 6#
b00000000000000000000000000000100 7#
b00000000000000000000000000000111 8#
b00000000000000000000000000000101 9#
b00000000000000000000000000000101 ;#
b0000000000000000000000000000000000000000000000000000000000000101 <#
#120000000
0!
0%
0$#
0*#
00#
#125000000
1!
b01011 #
1%
b01011 '
00"
b00000000000000000000000000000111 1"
02"
b00000000000000000000000000000101 3"
16"
0<"
b00000000000000000000000000000100 ="
0>"
b00000000000000000000000000000001 ?"
1D"
1F"
1H"
b100 ]"
b100 ^"
b00000000000000000000000000000101 `"
b01 g"
b01 h"
b1010 k"
b00000000000000000000000000000100 l"
b1010 m"
b00000000000000000000000000000001 n"
b1001 o"
b00000000000000000000000000000100 p"
b1001 q"
b0101 s"
b00000000000000000000000000000111 t"
b0101 u"
b00000000000000000000000000000101 v"
b00000000000000000000000000000111 {"
b00000000000000000000000000000101 |"
b00000000000000000000000000001100 }"
b00000000000000000000000000000100 !#
b00000000000000000000000000000100 ##
1$#
b100 &#
b100 '#
b00000000000000000000000000000101 )#
1*#
10#
b01 2#
b01 3#
b00000000000000000000000000000111 6#
b00000000000000000000000000000101 7#
b00000000000000000000000000001100 8#
b00000000000000000000000000000100 9#
b00000000000000000000000000000100 ;#
b0000000000000000000000000000000000000000000000000000000000000100 <#
#130000000
0!
0%
0$#
0*#
00#
#135000000
1!
b01100 #
1%
b01100 '
06"
b00000000000000000000000000001100 7"
0D"
b00000000000000000000000000000101 E"
0F"
b00000000000000000000000000000001 G"
0H"
b00000000000000000000000000000100 I"
1J"
1P"
1R"
b101 ]"
b101 ^"
b00000000000000000000000000000110 `"
1a"
b10 b"
b10 c"
b00000000000000000000000000001100 d"
b00000000000000000000000000000000 e"
b10 g"
b10 h"
b1011 k"
b00000000000000000000000000000101 l"
b1011 m"
b00000000000000000000000000000010 n"
b1010 o"
b00000000000000000000000000000101 p"
b1010 q"
b0000 s"
b00000000000000000000000000000001 t"
b0000 u"
b00000000000000000000000000000010 v"
b0010 w"
b00000000000000000000000000000010 x"
b0010 y"
b00000000000000000000000000001100 z"
b00000000000000000000000000000001 {"
b00000000000000000000000000000010 |"
b00000000000000000000000000000011 }"
b00000000000000000000000000000101 !#
b00000000000000000000000000000101 ##
1$#
b101 &#
b101 '#
b00000000000000000000000000000110 )#
1*#
1+#
b10 ,#
b10 -#
b00000000000000000000000000001100 .#
b00000000000000000000000000000000 /#
10#
b10 2#
b10 3#
b00000000000000000000000000000001 6#
b00000000000000000000000000000010 7#
b00000000000000000000000000000011 8#
b00000000000000000000000000000101 9#
b00000000000000000000000000000101 ;#
b0000000000000000000000000000000000000000000000000000000000000101 <#
#140000000
0!
0%
0$#
0*#
00#
#145000000
1!
b01101 #
1%
b01101 '
0J"
b00000000000000000000000000000101 K"
0P"
b00000000000000000000000000000110 Q"
0R"
b00000000000000000000000000000001 S"
1T"
1V"
b000 ]"
b000 ^"
b00000000000000000000000000000001 `"
0a"
b00 b"
b00 c"
b00000000000000000000000000000110 d"
b00000000000000000000000000000110 e"
b00 g"
b00 h"
b0000 k"
b00000000000000000000000000000000 l"
b0000 m"
b00000000000000000000000000000000 n"
b1011 o"
b00000000000000000000000000000110 p"
b1011 q"
b0110 s"
b00000000000000000000000000000100 t"
b0110 u"
b00000000000000000000000000000101 v"
b0000 w"
b00000000000000000000000000000000 x"
b0000 y"
b00000000000000000000000000000110 z"
b00000000000000000000000000000100 {"
b00000000000000000000000000000101 |"
b00000000000000000000000000001001 }"
b00000000000000000000000000000110 !#
b00000000000000000000000000000110 ##
1$#
b000 &#
b000 '#
b00000000000000000000000000000001 )#
1*#
0+#
b00 ,#
b00 -#
b00000000000000000000000000000110 .#
b00000000000000000000000000000110 /#
10#
b00 2#
b00 3#
b00000000000000000000000000000100 6#
b00000000000000000000000000000101 7#
b00000000000000000000000000001001 8#
b00000000000000000000000000000110 9#
b00000000000000000000000000000110 ;#
b0000000000000000000000000000000000000000000000000000000000000110 <#
#150000000
0!
0%
0$#
0*#
00#
#155000000
1!
b01110 #
1%
b01110 '
0T"
b00000000000000000000000000001001 U"
0V"
b00000000000000000000000000000110 W"
1Z"
b0000 o"
b00000000000000000000000000000001 p"
b0000 q"
b0111 s"
b00000000000000000000000000001001 t"
b0111 u"
b00000000000000000000000000000110 v"
b00000000000000000000000000001001 {"
b00000000000000000000000000000110 |"
b00000000000000000000000000001111 }"
b00000000000000000000000000000001 !#
b00000000000000000000000000000001 ##
1$#
1*#
10#
b00000000000000000000000000001001 6#
b00000000000000000000000000000110 7#
b00000000000000000000000000001111 8#
b00000000000000000000000000000001 9#
b00000000000000000000000000000001 ;#
b0000000000000000000000000000000000000000000000000000000000000001 <#
#160000000
0!
0%
0$#
0*#
00#
#165000000
1!
b01111 #
1%
b01111 '
0Z"
b00000000000000000000000000001111 ["
1a"
b11 b"
b11 c"
b00000000000000000000000000001111 d"
b00000000000000000000000000000000 e"
b0000 s"
b00000000000000000000000000000001 t"
b0000 u"
b00000000000000000000000000000010 v"
b0011 w"
b00000000000000000000000000000011 x"
b0011 y"
b00000000000000000000000000001111 z"
b00000000000000000000000000000001 {"
b00000000000000000000000000000010 |"
b00000000000000000000000000000011 }"
1$#
1*#
1+#
b11 ,#
b11 -#
b00000000000000000000000000001111 .#
b00000000000000000000000000000000 /#
10#
b00000000000000000000000000000001 6#
b00000000000000000000000000000010 7#
b00000000000000000000000000000011 8#
#170000000
0!
0%
0$#
0*#
00#
#175000000
1!
b10000 #
1$
1%
b10000 '
1(
0a"
b00 b"
b00 c"
b00000000000000000000000000000110 d"
b00000000000000000000000000000110 e"
b0000 w"
b00000000000000000000000000000000 x"
b0000 y"
b00000000000000000000000000000110 z"
1$#
1*#
0+#
b00 ,#
b00 -#
b00000000000000000000000000000110 .#
b00000000000000000000000000000110 /#
10#
